{
    "redis": {
      "host": "127.0.0.1",
      "port": 6379
    },
    "memcache": {
        "host": "localhost",
        "port": 11211
    },
    "mysql": {
        "dsn": "mysql:host=localhost;dbname=vs_test",
        "user": "root",
        "pass": ""
    }
  }